{
  "board": {
    "3dviewports": [],
    "design_settings": {
      "defaults": {
        "apply_defaults_to_fp_fields": false,
        "apply_defaults_to_fp_shapes": false,
        "apply_defaults_to_fp_text": false,
        "board_outline_line_width": 0.05,
        "copper_line_width": 0.2,
        "copper_text_italic": false,
        "copper_text_size_h": 1.5,
        "copper_text_size_v": 1.5,
        "copper_text_thickness": 0.3,
        "copper_text_upright": false,
        "courtyard_line_width": 0.05,
        "dimension_precision": 4,
        "dimension_units": 3,
        "dimensions": {
          "arrow_length": 1270000,
          "extension_offset": 500000,
          "keep_text_aligned": true,
          "suppress_zeroes": false,
          "text_position": 0,
          "units_format": 1
        },
        "fab_line_width": 0.1,
        "fab_text_italic": false,
        "fab_text_size_h": 1.0,
        "fab_text_size_v": 1.0,
        "fab_text_thickness": 0.15,
        "fab_text_upright": false,
        "other_line_width": 0.1,
        "other_text_italic": false,
        "other_text_size_h": 1.0,
        "other_text_size_v": 1.0,
        "other_text_thickness": 0.15,
        "other_text_upright": false,
        "pads": {
          "drill": 0.762,
          "height": 1.524,
          "width": 1.524
        },
        "silk_line_width": 0.1,
        "silk_text_italic": false,
        "silk_text_size_h": 1.0,
        "silk_text_size_v": 1.0,
        "silk_text_thickness": 0.1,
        "silk_text_upright": false,
        "zones": {
          "min_clearance": 0.2
        }
      },
      "diff_pair_dimensions": [
        {
          "gap": 0.0,
          "via_gap": 0.0,
          "width": 0.0
        }
      ],
      "drc_exclusions": [
        "annular_width|222270001|93604998|035e18bd-8f02-43e1-a2e6-8c4468adaaa2|00000000-0000-0000-0000-000000000000",
        "annular_width|222950000|93604998|0ef78a22-8945-4236-8f40-40b76933f715|00000000-0000-0000-0000-000000000000",
        "clearance|223325002|92530499|b5820292-eabf-4f0b-abc4-85ef9d454601|f9701576-0874-4fea-9e4a-e33216ffdbd0",
        "clearance|223599999|94180000|8e0c4ca5-ad6c-4a8d-a931-3eb1b06670fe|5786eeac-51f4-4728-a111-994d51e70263",
        "clearance|223599999|95025000|1a8f809d-c4e3-499e-8128-c7a43ce5691b|5786eeac-51f4-4728-a111-994d51e70263",
        "clearance|223599999|96024998|2b010f51-67d3-40c3-86f1-a7e46be31467|5786eeac-51f4-4728-a111-994d51e70263",
        "clearance|223599999|96229999|5786eeac-51f4-4728-a111-994d51e70263|8f8b0de6-7c4b-4136-b9dd-ff60918c3af0",
        "clearance|223675000|92655001|b5820292-eabf-4f0b-abc4-85ef9d454601|8f8b0de6-7c4b-4136-b9dd-ff60918c3af0",
        "clearance|224000000|93024999|83734535-4da9-41db-a99b-0d823ca9b7b6|8f8b0de6-7c4b-4136-b9dd-ff60918c3af0",
        "clearance|224000000|93250000|f8c70aee-9363-4fb2-b5a0-e646afa8d906|8f8b0de6-7c4b-4136-b9dd-ff60918c3af0",
        "clearance|224000000|94024999|8e0c4ca5-ad6c-4a8d-a931-3eb1b06670fe|8f8b0de6-7c4b-4136-b9dd-ff60918c3af0",
        "clearance|224000000|95025000|1a8f809d-c4e3-499e-8128-c7a43ce5691b|8f8b0de6-7c4b-4136-b9dd-ff60918c3af0",
        "clearance|224000000|96024998|2b010f51-67d3-40c3-86f1-a7e46be31467|8f8b0de6-7c4b-4136-b9dd-ff60918c3af0",
        "clearance|224325000|91854999|a337a611-e263-416a-bbbb-af38bf573eed|8f8b0de6-7c4b-4136-b9dd-ff60918c3af0",
        "clearance|224400001|94180000|4f1aa4e6-9c1f-437c-b365-6779740e6c67|8f8b0de6-7c4b-4136-b9dd-ff60918c3af0",
        "clearance|224400001|94180000|8e0c4ca5-ad6c-4a8d-a931-3eb1b06670fe|4f1aa4e6-9c1f-437c-b365-6779740e6c67",
        "clearance|224400001|95025000|1a8f809d-c4e3-499e-8128-c7a43ce5691b|4f1aa4e6-9c1f-437c-b365-6779740e6c67",
        "clearance|224400001|96024998|2b010f51-67d3-40c3-86f1-a7e46be31467|4f1aa4e6-9c1f-437c-b365-6779740e6c67",
        "clearance|224674998|92055499|a337a611-e263-416a-bbbb-af38bf573eed|4b69c38d-4e21-446b-a3c6-1854c58f70a0",
        "clearance|224800000|93279998|5b6c5225-0198-4945-be0d-bc95dbb63bdf|5fb1152e-bb7a-42fd-97c1-c947aee996bd",
        "drill_out_of_range|222270001|93604998|035e18bd-8f02-43e1-a2e6-8c4468adaaa2|00000000-0000-0000-0000-000000000000",
        "drill_out_of_range|222270001|94804998|4e024b9b-9fe4-4499-ab46-e825178906a9|00000000-0000-0000-0000-000000000000",
        "drill_out_of_range|222270001|95304999|c8e7ee26-89f1-4fa0-b4d0-22692263ba6e|00000000-0000-0000-0000-000000000000",
        "drill_out_of_range|222270001|95804998|d8567fc9-b69f-438c-b21f-3d270756f400|00000000-0000-0000-0000-000000000000",
        "drill_out_of_range|222950000|93604998|0ef78a22-8945-4236-8f40-40b76933f715|00000000-0000-0000-0000-000000000000",
        "drill_out_of_range|223219999|94844998|4d0760c2-bccd-4cae-a145-c407dd824fbb|00000000-0000-0000-0000-000000000000",
        "drill_out_of_range|223219999|95664999|f9c1ad63-5920-4213-a2cb-3b336e1a321f|00000000-0000-0000-0000-000000000000",
        "drill_out_of_range|224000000|93024999|83734535-4da9-41db-a99b-0d823ca9b7b6|00000000-0000-0000-0000-000000000000",
        "drill_out_of_range|224000000|94024999|8e0c4ca5-ad6c-4a8d-a931-3eb1b06670fe|00000000-0000-0000-0000-000000000000",
        "drill_out_of_range|224000000|95025000|1a8f809d-c4e3-499e-8128-c7a43ce5691b|00000000-0000-0000-0000-000000000000",
        "drill_out_of_range|224000000|96024998|2b010f51-67d3-40c3-86f1-a7e46be31467|00000000-0000-0000-0000-000000000000",
        "solder_mask_bridge|223850000|91855499|c56cd47a-dc6b-4718-927d-42846b2a1ff5|f8c70aee-9363-4fb2-b5a0-e646afa8d906",
        "solder_mask_bridge|224000000|93024999|8f8b0de6-7c4b-4136-b9dd-ff60918c3af0|83734535-4da9-41db-a99b-0d823ca9b7b6",
        "solder_mask_bridge|224000000|94024999|8f8b0de6-7c4b-4136-b9dd-ff60918c3af0|8e0c4ca5-ad6c-4a8d-a931-3eb1b06670fe",
        "solder_mask_bridge|224000000|95025000|8f8b0de6-7c4b-4136-b9dd-ff60918c3af0|1a8f809d-c4e3-499e-8128-c7a43ce5691b",
        "solder_mask_bridge|224000000|96024998|8f8b0de6-7c4b-4136-b9dd-ff60918c3af0|2b010f51-67d3-40c3-86f1-a7e46be31467",
        "solder_mask_bridge|248290431|138207418|14bd8d46-970a-4071-8cf4-1c7e00e6d06e|e6547ca5-9288-450f-abeb-27b46937706d",
        "solder_mask_bridge|249971634|93882361|5e19e578-755a-4596-a505-53c76307df47|e6547ca5-9288-450f-abeb-27b46937706d"
      ],
      "meta": {
        "version": 2
      },
      "rule_severities": {
        "annular_width": "error",
        "clearance": "error",
        "connection_width": "warning",
        "copper_edge_clearance": "error",
        "copper_sliver": "warning",
        "courtyards_overlap": "error",
        "diff_pair_gap_out_of_range": "error",
        "diff_pair_uncoupled_length_too_long": "error",
        "drill_out_of_range": "error",
        "duplicate_footprints": "warning",
        "extra_footprint": "warning",
        "footprint": "error",
        "footprint_symbol_mismatch": "warning",
        "footprint_type_mismatch": "ignore",
        "hole_clearance": "error",
        "hole_near_hole": "error",
        "invalid_outline": "error",
        "isolated_copper": "warning",
        "item_on_disabled_layer": "error",
        "items_not_allowed": "error",
        "length_out_of_range": "error",
        "lib_footprint_issues": "warning",
        "lib_footprint_mismatch": "warning",
        "malformed_courtyard": "error",
        "microvia_drill_out_of_range": "error",
        "missing_courtyard": "ignore",
        "missing_footprint": "warning",
        "net_conflict": "warning",
        "npth_inside_courtyard": "ignore",
        "padstack": "warning",
        "pth_inside_courtyard": "ignore",
        "shorting_items": "error",
        "silk_edge_clearance": "warning",
        "silk_over_copper": "warning",
        "silk_overlap": "warning",
        "skew_out_of_range": "error",
        "solder_mask_bridge": "error",
        "starved_thermal": "error",
        "text_height": "warning",
        "text_thickness": "warning",
        "through_hole_pad_without_hole": "error",
        "too_many_vias": "error",
        "track_dangling": "warning",
        "track_width": "error",
        "tracks_crossing": "error",
        "unconnected_items": "error",
        "unresolved_variable": "error",
        "via_dangling": "warning",
        "zones_intersect": "error"
      },
      "rules": {
        "max_error": 0.005,
        "min_clearance": 0.0,
        "min_connection": 0.0,
        "min_copper_edge_clearance": 0.5,
        "min_hole_clearance": 0.25,
        "min_hole_to_hole": 0.25,
        "min_microvia_diameter": 0.2,
        "min_microvia_drill": 0.1,
        "min_resolved_spokes": 2,
        "min_silk_clearance": 0.0,
        "min_text_height": 0.8,
        "min_text_thickness": 0.08,
        "min_through_hole_diameter": 0.3,
        "min_track_width": 0.0,
        "min_via_annular_width": 0.1,
        "min_via_diameter": 0.5,
        "solder_mask_to_copper_clearance": 0.005,
        "use_height_for_length_calcs": true
      },
      "teardrop_options": [
        {
          "td_onpadsmd": true,
          "td_onroundshapesonly": false,
          "td_ontrackend": false,
          "td_onviapad": true
        }
      ],
      "teardrop_parameters": [
        {
          "td_allow_use_two_tracks": true,
          "td_curve_segcount": 0,
          "td_height_ratio": 1.0,
          "td_length_ratio": 0.5,
          "td_maxheight": 2.0,
          "td_maxlen": 1.0,
          "td_on_pad_in_zone": false,
          "td_target_name": "td_round_shape",
          "td_width_to_size_filter_ratio": 0.9
        },
        {
          "td_allow_use_two_tracks": true,
          "td_curve_segcount": 0,
          "td_height_ratio": 1.0,
          "td_length_ratio": 0.5,
          "td_maxheight": 2.0,
          "td_maxlen": 1.0,
          "td_on_pad_in_zone": false,
          "td_target_name": "td_rect_shape",
          "td_width_to_size_filter_ratio": 0.9
        },
        {
          "td_allow_use_two_tracks": true,
          "td_curve_segcount": 0,
          "td_height_ratio": 1.0,
          "td_length_ratio": 0.5,
          "td_maxheight": 2.0,
          "td_maxlen": 1.0,
          "td_on_pad_in_zone": false,
          "td_target_name": "td_track_end",
          "td_width_to_size_filter_ratio": 0.9
        }
      ],
      "track_widths": [
        0.0,
        0.2,
        0.4,
        0.6,
        0.8,
        1.0,
        1.2
      ],
      "tuning_pattern_settings": {
        "diff_pair_defaults": {
          "corner_radius_percentage": 80,
          "corner_style": 1,
          "max_amplitude": 1.0,
          "min_amplitude": 0.2,
          "single_sided": false,
          "spacing": 1.0
        },
        "diff_pair_skew_defaults": {
          "corner_radius_percentage": 80,
          "corner_style": 1,
          "max_amplitude": 1.0,
          "min_amplitude": 0.2,
          "single_sided": false,
          "spacing": 0.6
        },
        "single_track_defaults": {
          "corner_radius_percentage": 80,
          "corner_style": 1,
          "max_amplitude": 1.0,
          "min_amplitude": 0.2,
          "single_sided": false,
          "spacing": 0.6
        }
      },
      "via_dimensions": [
        {
          "diameter": 0.0,
          "drill": 0.0
        }
      ],
      "zones_allow_external_fillets": false
    },
    "ipc2581": {
      "dist": "",
      "distpn": "",
      "internal_id": "",
      "mfg": "",
      "mpn": ""
    },
    "layer_presets": [],
    "viewports": []
  },
  "boards": [],
  "cvpcb": {
    "equivalence_files": []
  },
  "erc": {
    "erc_exclusions": [],
    "meta": {
      "version": 0
    },
    "pin_map": [
      [
        0,
        0,
        0,
        0,
        0,
        0,
        1,
        0,
        0,
        0,
        0,
        2
      ],
      [
        0,
        2,
        0,
        1,
        0,
        0,
        1,
        0,
        2,
        2,
        2,
        2
      ],
      [
        0,
        0,
        0,
        0,
        0,
        0,
        1,
        0,
        1,
        0,
        1,
        2
      ],
      [
        0,
        1,
        0,
        0,
        0,
        0,
        1,
        1,
        2,
        1,
        1,
        2
      ],
      [
        0,
        0,
        0,
        0,
        0,
        0,
        1,
        0,
        0,
        0,
        0,
        2
      ],
      [
        0,
        0,
        0,
        0,
        0,
        0,
        0,
        0,
        0,
        0,
        0,
        2
      ],
      [
        1,
        1,
        1,
        1,
        1,
        0,
        1,
        1,
        1,
        1,
        1,
        2
      ],
      [
        0,
        0,
        0,
        1,
        0,
        0,
        1,
        0,
        0,
        0,
        0,
        2
      ],
      [
        0,
        2,
        1,
        2,
        0,
        0,
        1,
        0,
        2,
        2,
        2,
        2
      ],
      [
        0,
        2,
        0,
        1,
        0,
        0,
        1,
        0,
        2,
        0,
        0,
        2
      ],
      [
        0,
        2,
        1,
        1,
        0,
        0,
        1,
        0,
        2,
        0,
        0,
        2
      ],
      [
        2,
        2,
        2,
        2,
        2,
        2,
        2,
        2,
        2,
        2,
        2,
        2
      ]
    ],
    "rule_severities": {
      "bus_definition_conflict": "error",
      "bus_entry_needed": "error",
      "bus_to_bus_conflict": "error",
      "bus_to_net_conflict": "error",
      "conflicting_netclasses": "error",
      "different_unit_footprint": "error",
      "different_unit_net": "error",
      "duplicate_reference": "error",
      "duplicate_sheet_names": "error",
      "endpoint_off_grid": "warning",
      "extra_units": "error",
      "global_label_dangling": "warning",
      "hier_label_mismatch": "error",
      "label_dangling": "error",
      "lib_symbol_issues": "warning",
      "missing_bidi_pin": "warning",
      "missing_input_pin": "warning",
      "missing_power_pin": "error",
      "missing_unit": "warning",
      "multiple_net_names": "warning",
      "net_not_bus_member": "warning",
      "no_connect_connected": "warning",
      "no_connect_dangling": "warning",
      "pin_not_connected": "error",
      "pin_not_driven": "error",
      "pin_to_pin": "warning",
      "power_pin_not_driven": "error",
      "similar_labels": "warning",
      "simulation_model_issue": "ignore",
      "unannotated": "error",
      "unit_value_mismatch": "error",
      "unresolved_variable": "error",
      "wire_dangling": "error"
    }
  },
  "libraries": {
    "pinned_footprint_libs": [],
    "pinned_symbol_libs": []
  },
  "meta": {
    "filename": "IrrigationController.kicad_pro",
    "version": 1
  },
  "net_settings": {
    "classes": [
      {
        "bus_width": 12,
        "clearance": 0.2,
        "diff_pair_gap": 0.25,
        "diff_pair_via_gap": 0.25,
        "diff_pair_width": 0.2,
        "line_style": 0,
        "microvia_diameter": 0.3,
        "microvia_drill": 0.1,
        "name": "Default",
        "pcb_color": "rgba(0, 0, 0, 0.000)",
        "schematic_color": "rgba(0, 0, 0, 0.000)",
        "track_width": 0.2,
        "via_diameter": 0.6,
        "via_drill": 0.3,
        "wire_width": 6
      },
      {
        "bus_width": 12,
        "clearance": 0.2,
        "diff_pair_gap": 0.25,
        "diff_pair_via_gap": 0.25,
        "diff_pair_width": 0.2,
        "line_style": 0,
        "microvia_diameter": 0.3,
        "microvia_drill": 0.1,
        "name": "OUT 2A",
        "pcb_color": "rgba(0, 0, 0, 0.000)",
        "schematic_color": "rgba(0, 0, 0, 0.000)",
        "track_width": 0.4,
        "via_diameter": 0.6,
        "via_drill": 0.3,
        "wire_width": 6
      },
      {
        "bus_width": 12,
        "clearance": 0.2,
        "diff_pair_gap": 0.25,
        "diff_pair_via_gap": 0.25,
        "diff_pair_width": 0.2,
        "line_style": 0,
        "microvia_diameter": 0.3,
        "microvia_drill": 0.1,
        "name": "Supply 10A",
        "pcb_color": "rgba(0, 0, 0, 0.000)",
        "schematic_color": "rgba(0, 0, 0, 0.000)",
        "track_width": 3.6,
        "via_diameter": 0.8,
        "via_drill": 0.4,
        "wire_width": 6
      },
      {
        "bus_width": 12,
        "clearance": 0.2,
        "diff_pair_gap": 0.25,
        "diff_pair_via_gap": 0.25,
        "diff_pair_width": 0.2,
        "line_style": 0,
        "microvia_diameter": 0.3,
        "microvia_drill": 0.1,
        "name": "Supply 1A",
        "pcb_color": "rgba(0, 0, 0, 0.000)",
        "schematic_color": "rgba(0, 0, 0, 0.000)",
        "track_width": 0.2,
        "via_diameter": 0.8,
        "via_drill": 0.4,
        "wire_width": 6
      },
      {
        "bus_width": 12,
        "clearance": 0.127,
        "diff_pair_gap": 0.127,
        "diff_pair_via_gap": 0.25,
        "diff_pair_width": 0.2088,
        "line_style": 0,
        "microvia_diameter": 0.3,
        "microvia_drill": 0.1,
        "name": "USB",
        "pcb_color": "rgba(0, 0, 0, 0.000)",
        "schematic_color": "rgba(0, 0, 0, 0.000)",
        "track_width": 0.2088,
        "via_diameter": 0.6,
        "via_drill": 0.3,
        "wire_width": 6
      }
    ],
    "meta": {
      "version": 3
    },
    "net_colors": null,
    "netclass_assignments": null,
    "netclass_patterns": [
      {
        "netclass": "USB",
        "pattern": "/USB*"
      },
      {
        "netclass": "Supply 1A",
        "pattern": "+5V"
      },
      {
        "netclass": "Supply 1A",
        "pattern": "+3.3V"
      },
      {
        "netclass": "OUT 2A",
        "pattern": "/OUT."
      },
      {
        "netclass": "Supply 10A",
        "pattern": "+24V*"
      },
      {
        "netclass": "Supply 1A",
        "pattern": "/33*"
      }
    ]
  },
  "pcbnew": {
    "last_paths": {
      "gencad": "",
      "idf": "",
      "netlist": "",
      "plot": "",
      "pos_files": "",
      "specctra_dsn": "",
      "step": "",
      "svg": "",
      "vrml": ""
    },
    "page_layout_descr_file": ""
  },
  "schematic": {
    "annotate_start_num": 0,
    "bom_fmt_presets": [],
    "bom_fmt_settings": {
      "field_delimiter": ",",
      "keep_line_breaks": false,
      "keep_tabs": false,
      "name": "CSV",
      "ref_delimiter": ",",
      "ref_range_delimiter": "",
      "string_delimiter": "\""
    },
    "bom_presets": [],
    "bom_settings": {
      "exclude_dnp": false,
      "fields_ordered": [
        {
          "group_by": false,
          "label": "Reference",
          "name": "Reference",
          "show": true
        },
        {
          "group_by": true,
          "label": "Value",
          "name": "Value",
          "show": true
        },
        {
          "group_by": false,
          "label": "Datasheet",
          "name": "Datasheet",
          "show": true
        },
        {
          "group_by": false,
          "label": "Footprint",
          "name": "Footprint",
          "show": true
        },
        {
          "group_by": false,
          "label": "Qty",
          "name": "${QUANTITY}",
          "show": true
        },
        {
          "group_by": true,
          "label": "DNP",
          "name": "${DNP}",
          "show": true
        },
        {
          "group_by": false,
          "label": "#",
          "name": "${ITEM_NUMBER}",
          "show": false
        },
        {
          "group_by": false,
          "label": "DNP",
          "name": "DNP",
          "show": false
        },
        {
          "group_by": false,
          "label": "Height",
          "name": "Height",
          "show": false
        },
        {
          "group_by": false,
          "label": "Mouser Part Number",
          "name": "Mouser Part Number",
          "show": true
        },
        {
          "group_by": false,
          "label": "Mouser Price/Stock",
          "name": "Mouser Price/Stock",
          "show": true
        },
        {
          "group_by": false,
          "label": "Description",
          "name": "Description",
          "show": false
        },
        {
          "group_by": false,
          "label": "Sim.Pins",
          "name": "Sim.Pins",
          "show": false
        },
        {
          "group_by": false,
          "label": "Sim.Device",
          "name": "Sim.Device",
          "show": false
        }
      ],
      "filter_string": "",
      "group_symbols": true,
      "name": "",
      "sort_asc": true,
      "sort_field": "Reference"
    },
    "connection_grid_size": 50.0,
    "drawing": {
      "dashed_lines_dash_length_ratio": 12.0,
      "dashed_lines_gap_length_ratio": 3.0,
      "default_line_thickness": 6.0,
      "default_text_size": 50.0,
      "field_names": [],
      "intersheets_ref_own_page": false,
      "intersheets_ref_prefix": "",
      "intersheets_ref_short": false,
      "intersheets_ref_show": false,
      "intersheets_ref_suffix": "",
      "junction_size_choice": 3,
      "label_size_ratio": 0.375,
      "operating_point_overlay_i_precision": 3,
      "operating_point_overlay_i_range": "~A",
      "operating_point_overlay_v_precision": 3,
      "operating_point_overlay_v_range": "~V",
      "overbar_offset_ratio": 1.23,
      "pin_symbol_size": 25.0,
      "text_offset_ratio": 0.15
    },
    "legacy_lib_dir": "",
    "legacy_lib_list": [],
    "meta": {
      "version": 1
    },
    "net_format_name": "",
    "page_layout_descr_file": "",
    "plot_directory": "",
    "spice_current_sheet_as_root": false,
    "spice_external_command": "spice \"%I\"",
    "spice_model_current_sheet_as_root": true,
    "spice_save_all_currents": false,
    "spice_save_all_dissipations": false,
    "spice_save_all_voltages": false,
    "subpart_first_id": 65,
    "subpart_id_separator": 0
  },
  "sheets": [
    [
      "933b29ed-915c-4694-9794-a7a41d993339",
      "Root"
    ]
  ],
  "text_variables": {}
}
